{
  "ev:annehmenSupportauftragRequest": {
    "@xmlns:ev": "http://wholesale.telekom.de/ess/v5/envelope",
    "@xmlns:sp": "http://wholesale.telekom.de/ess/v5/support",
    "@xmlns:ct": "http://wholesale.telekom.de/ess/v5/type/complex",
    "@xmlns:xsi": "http://www.w3.org/2001/XMLSchema-instance",
    "Control": {
      "zeitstempel": "2012-02-18T18:37:24.483+02:00",
      "majorRelease": "05",
      "minorRelease": "30",
      "signaturId": {
        "issuer": "signature issuer",
        "serial": "serialnumber"
      }
    },
    "sp:Supportauftrag": {
      "Kunde": {
        "Kundennummer": "0123456789",
        "Leistungsnummer": "23424311"
      },
      "ExterneSupportnummer": "12345",
      "Vertragsnummer": "0123456789",
      "Produktbezeichnung": "ADSL SA 2000",
      "SupportFunktion": "LineReset"
    }
  }
}